simulation/qsim/Lab4.msim.vcd
$comment
	File created using the following command:
		vcd file Lab4.msim.vcd -direction
$end
$date
	Tue Feb 07 15:27:24 2017
$end
$version
	ModelSim Version 10.1d
$end
$timescale
	1ps
$end
$scope module Lab4_vlg_vec_tst $end
$var reg 1 ! s0 $end
$var reg 1 " s1 $end
$var reg 1 # s2 $end
$var reg 1 $ w0 $end
$var reg 1 % w1 $end
$var reg 1 & w2 $end
$var reg 1 ' w3 $end
$var reg 1 ( w4 $end
$var reg 1 ) w5 $end
$var reg 1 * w6 $end
$var reg 1 + w7 $end
$var wire 1 , out $end
$var wire 1 - sampler $end
$scope module i1 $end
$var wire 1 . gnd $end
$var wire 1 / vcc $end
$var wire 1 0 unknown $end
$var tri1 1 1 devclrn $end
$var tri1 1 2 devpor $end
$var tri1 1 3 devoe $end
$var wire 1 4 out~output_o $end
$var wire 1 5 s1~input_o $end
$var wire 1 6 w3~input_o $end
$var wire 1 7 w2~input_o $end
$var wire 1 8 w0~input_o $end
$var wire 1 9 w1~input_o $end
$var wire 1 : s0~input_o $end
$var wire 1 ; inst4|inst2~2_combout $end
$var wire 1 < inst4|inst2~3_combout $end
$var wire 1 = w5~input_o $end
$var wire 1 > w7~input_o $end
$var wire 1 ? w6~input_o $end
$var wire 1 @ w4~input_o $end
$var wire 1 A inst4|inst2~0_combout $end
$var wire 1 B inst4|inst2~1_combout $end
$var wire 1 C s2~input_o $end
$var wire 1 D inst4|inst2~4_combout $end
$upscope $end
$upscope $end
$enddefinitions $end
#0
$dumpvars
0!
0"
0#
1$
0%
0&
1'
1(
1)
1*
0+
1,
x-
0.
1/
x0
11
12
13
14
05
16
07
18
09
0:
1;
1<
1=
0>
1?
1@
1A
1B
0C
1D
$end
#2000
0$
1%
08
19
0-
0;
0<
0D
04
0,
#3000
1$
18
1-
1;
1<
1D
14
1,
#4000
0%
09
0-
#5000
0$
08
1-
0;
0<
0D
04
0,
#6000
1%
19
0-
#7000
1$
18
1-
1;
1<
1D
14
1,
#10000
0$
08
0-
0;
0<
0D
04
0,
#12000
0%
09
1-
#13000
1$
18
0-
1;
1<
1D
14
1,
#16000
1%
0$
19
08
1-
0;
0<
0D
04
0,
#18000
1&
0%
1$
17
09
18
0-
1;
1<
1D
14
1,
#20000
0$
08
1-
0;
0<
0D
04
0,
#22000
1$
18
0-
1;
1<
1D
14
1,
#24000
0'
1%
0$
06
19
08
1-
0;
0<
0D
04
0,
#26000
0%
09
0-
#27000
1$
18
1-
1;
1<
1D
14
1,
#28000
1%
19
0-
#29000
0$
08
1-
0;
0<
0D
04
0,
#30000
0&
0%
1$
07
09
18
0-
1;
1<
1D
14
1,
#32000
1'
1%
0$
16
19
08
1-
0;
0<
0D
04
0,
#33000
1$
18
0-
1;
1<
1D
14
1,
#35000
0)
0=
1-
#36000
1&
17
0-
#37000
0$
08
1-
0;
0<
0D
04
0,
#38000
0%
09
0-
#39000
0&
1$
07
18
1-
1;
1<
1D
14
1,
#40000
0(
1%
0$
0@
19
08
0-
0A
0;
0B
0<
0D
04
0,
#42000
1&
0%
1$
17
09
18
1-
1;
1<
1D
14
1,
#43000
0$
08
0-
0;
0<
0D
04
0,
#44000
1%
19
1-
#45000
1$
18
0-
1;
1<
1D
14
1,
#46000
0%
09
1-
#47000
0$
08
0-
0;
0<
0D
04
0,
#48000
0&
07
1-
#50000
1%
1$
19
18
0-
1;
1<
1D
14
1,
#53000
0$
08
1-
0;
0<
0D
04
0,
#54000
0%
1$
09
18
0-
1;
1<
1D
14
1,
#56000
0'
0$
06
08
1-
0;
0<
0D
04
0,
#57000
1&
1$
17
18
0-
1;
1<
1D
14
1,
#58000
1%
19
1-
#59000
0$
08
0-
0;
0<
0D
04
0,
#60000
1(
0&
1@
07
1-
1A
1B
#61000
1$
18
0-
1;
1<
1D
14
1,
#62000
0%
0$
09
08
1-
0;
0<
0D
04
0,
#63000
1$
18
0-
1;
1<
1D
14
1,
#64000
1%
0$
19
08
1-
0;
0<
0D
04
0,
#66000
0%
1$
09
18
0-
1;
1<
1D
14
1,
#68000
1%
0$
19
08
1-
0;
0<
0D
04
0,
#69000
1&
17
0-
#70000
0%
09
1-
#72000
1'
0&
1%
16
07
19
0-
#74000
1$
18
1-
1;
1<
1D
14
1,
#76000
0$
08
0-
0;
0<
0D
04
0,
#77000
1$
18
1-
1;
1<
1D
14
1,
#78000
1&
0$
17
08
0-
0;
0<
0D
04
0,
#80000
1#
0'
1$
1C
06
18
1-
1;
1D
1<
14
1,
#81000
0&
07
0-
#82000
0%
0$
09
08
1-
0;
0<
#84000
1&
1%
1$
17
19
18
0-
1;
1<
#88000
0$
08
1-
0;
0<
#90000
0&
0%
1$
07
09
18
0-
1;
1<
#91000
0$
08
1-
0;
0<
#92000
1%
1$
19
18
0-
1;
1<
#94000
0%
0$
09
08
1-
0;
0<
#95000
1$
18
0-
1;
1<
#96000
1%
0$
19
08
1-
0;
0<
#97000
1$
18
0-
1;
1<
#99000
1&
0$
17
08
1-
0;
0<
#100000
1$
18
0-
1;
1<
#102000
0&
07
1-
#104000
0%
09
0-
#105000
1&
17
1-
#106000
1%
19
0-
#108000
0$
0&
0%
08
07
09
1-
0;
0<
#112000
1'
1$
1%
16
18
19
0-
1;
1<
#113000
0$
08
1-
0;
0<
#114000
1&
0%
17
09
0-
#116000
1%
19
1-
#118000
0%
09
0-
#119000
1$
18
1-
1;
1<
#120000
0'
0&
0$
06
07
08
0-
0;
0<
#123000
1&
1$
17
18
1-
1;
1<
#124000
0$
08
0-
0;
0<
#125000
1$
18
1-
1;
1<
#126000
1%
0&
0$
19
07
08
0-
0;
0<
#127000
1$
18
1-
1;
1<
#128000
1'
0$
16
08
0-
0;
0<
#130000
0%
1$
09
18
1-
1;
1<
#131000
0$
08
0-
0;
0<
#132000
1&
17
1-
#134000
1$
18
0-
1;
1<
#135000
0&
0$
07
08
1-
0;
0<
#136000
1%
1$
19
18
0-
1;
1<
#138000
1&
0$
17
08
1-
0;
0<
#140000
1)
0%
1$
1=
09
18
0-
1;
1<
#141000
0&
07
1-
#142000
0$
08
0-
0;
0<
#144000
0'
1%
1&
06
19
17
1-
#147000
0&
07
0-
#148000
1$
0%
18
09
1-
1;
1<
#149000
0$
08
0-
0;
0<
#150000
1&
1%
1$
17
19
18
1-
1;
1<
#152000
0%
0$
09
08
0-
0;
0<
#154000
1%
1$
19
18
1-
1;
1<
#156000
0&
0%
07
09
0-
#157000
0$
08
1-
0;
0<
#159000
1&
1$
17
18
0-
1;
1<
#160000
0(
0$
0@
08
1-
0A
0;
0B
0<
0D
04
0,
#164000
1%
1$
19
18
0-
1;
1<
#167000
0$
08
1-
0;
0<
#168000
1'
0&
1$
16
07
18
0-
1;
1<
#170000
0$
08
1-
0;
0<
#172000
0%
1$
09
18
0-
1;
1<
#174000
1&
17
1-
#177000
0$
0&
08
07
0-
0;
0<
#178000
1%
1$
19
18
1-
1;
1<
#179000
0$
08
0-
0;
0<
#180000
1"
0#
1(
1$
15
0C
1@
18
1-
1A
1B
#182000
0$
08
0-
#183000
1$
18
1-
#185000
0$
08
0-
#186000
1&
1$
17
18
1-
1<
1D
14
1,
#187000
0$
08
0-
#188000
0%
1$
09
18
1-
#189000
0&
07
0-
0<
0D
04
0,
#194000
1%
19
1-
#195000
0$
08
0-
#197000
1$
18
1-
#198000
0$
08
0-
#199000
1$
18
1-
#200000
0'
06
0-
#201000
1&
0$
17
08
1-
1<
1D
14
1,
#202000
0%
09
0-
#204000
0&
07
1-
0<
0D
04
0,
#206000
1%
19
0-
#207000
1$
18
1-
#208000
0%
0$
09
08
0-
#209000
1$
18
1-
#210000
1&
1%
17
19
0-
1<
1D
14
1,
#211000
0$
08
1-
#212000
0%
09
0-
#214000
1%
19
1-
#215000
1$
18
0-
#216000
1'
16
1-
#218000
0%
0$
09
08
0-
#219000
1$
18
1-
#220000
0(
1%
0@
19
0-
#222000
0&
0$
0%
07
08
09
1-
0<
0D
04
0,
#223000
1$
18
0-
#224000
0'
1%
06
19
1-
#225000
1&
17
0-
1<
1D
14
1,
#226000
0$
0%
08
09
1-
#228000
1%
19
0-
#230000
1$
0%
18
09
1-
#231000
0$
08
0-
#232000
1$
18
1-
#233000
0$
08
0-
#234000
1%
1$
19
18
1-
#236000
0%
09
0-
#237000
0&
07
1-
0<
0D
04
0,
#239000
0$
08
0-
#240000
1(
1%
1$
1@
19
18
1-
#241000
0$
08
0-
#244000
0%
09
1-
#245000
0)
1$
0=
18
0-
#246000
1%
0$
19
08
1-
#247000
1$
18
0-
#248000
0%
09
1-
#251000
0$
08
0-
#252000
1%
1$
19
18
1-
#256000
0%
09
0-
#258000
0$
1%
08
19
1-
#260000
0(
0%
0@
09
0-
#261000
1&
17
1-
1<
1D
14
1,
#262000
1%
19
0-
#263000
1$
18
1-
#264000
1'
0&
0$
16
07
08
0-
0<
0D
04
0,
#265000
1$
18
1-
#268000
0$
08
0-
#269000
1$
18
1-
#270000
0$
08
0-
#271000
1$
18
1-
#273000
1&
17
0-
1<
1D
14
1,
#274000
0%
09
1-
#275000
0$
08
0-
#276000
0&
07
1-
0<
0D
04
0,
#277000
1$
18
0-
#278000
1%
0$
19
08
1-
#279000
1$
18
0-
#280000
1#
1)
1(
0'
0%
1C
1=
1@
06
09
1-
1D
14
1,
#281000
0$
08
0-
#283000
1$
18
1-
#285000
1&
0$
17
08
0-
1<
#286000
1%
1$
19
18
1-
#288000
1'
0&
16
07
0-
0<
#289000
0$
08
1-
#290000
0%
09
0-
#291000
1&
17
1-
1<
#292000
1%
19
0-
#293000
1$
18
1-
#294000
0%
09
0-
#296000
0'
0$
06
08
1-
#299000
1$
18
0-
#300000
0&
1%
07
19
1-
0<
#302000
0$
0%
08
09
0-
#304000
1'
1%
16
19
1-
#305000
1$
18
0-
#306000
0%
09
1-
#307000
0$
08
0-
#310000
1%
1$
19
18
1-
#311000
0$
08
0-
#312000
1&
0'
1$
17
06
18
1-
1<
#314000
0%
0$
09
08
0-
#315000
0)
0&
0=
07
1-
0<
#316000
1$
18
0-
#317000
0$
08
1-
#318000
1%
1$
19
18
0-
#319000
0$
08
1-
#320000
1$
18
0-
#321000
0$
08
1-
#323000
1$
18
0-
#324000
1&
0$
17
08
1-
1<
#326000
1$
18
0-
#327000
0&
0$
07
08
1-
0<
#328000
1'
0%
1$
16
09
18
0-
#330000
1&
1%
17
19
1-
1<
#332000
0$
08
0-
#333000
0&
07
1-
0<
#334000
0%
09
0-
#336000
0'
1$
1%
06
18
19
1-
#338000
0$
0%
08
09
0-
#339000
1$
18
1-
#340000
0(
1%
0$
0@
19
08
0-
#341000
1$
18
1-
#342000
0$
08
0-
#343000
1$
18
1-
#344000
0$
08
0-
#345000
1&
1$
17
18
1-
1<
#346000
0%
0$
09
08
0-
#347000
1$
18
1-
#348000
0&
1%
0$
07
19
08
0-
0<
#350000
0%
1$
09
18
1-
#351000
1&
0$
17
08
0-
1<
#353000
1$
18
1-
#354000
1%
0$
19
08
0-
#355000
1$
18
1-
#356000
0$
08
0-
#357000
0&
1$
07
18
1-
0<
#360000
1'
1(
1&
0$
16
1@
17
08
0-
1<
#361000
1$
18
1-
#364000
0$
08
0-
#365000
1$
18
1-
#366000
0%
0&
0$
09
07
08
0-
0<
#368000
0'
06
1-
#369000
1&
17
0-
1<
#370000
1%
1$
19
18
1-
#372000
0&
0%
0$
07
09
08
0-
0<
#373000
1$
18
1-
#374000
1%
19
0-
#375000
0$
08
1-
#376000
1'
16
0-
#380000
0%
09
1-
#381000
1$
18
0-
#384000
0'
0$
06
08
1-
#385000
1)
1=
0-
#387000
1$
18
1-
#388000
0$
08
0-
#389000
1$
18
1-
#390000
1&
17
0-
1<
#391000
0$
08
1-
#392000
1'
16
0-
#394000
1$
18
1-
#396000
0&
0$
07
08
0-
0<
#397000
1$
18
1-
#399000
1&
0$
17
08
0-
1<
#400000
1%
1$
19
18
1-
#402000
0&
07
0-
0<
#405000
1&
17
1-
1<
#407000
0$
08
0-
#408000
0&
07
1-
0<
#410000
1$
18
0-
#413000
0$
08
1-
#414000
1&
17
0-
1<
#415000
1$
18
1-
#416000
0%
0$
09
08
0-
#417000
1$
18
1-
#418000
1%
19
0-
#419000
0$
08
1-
#420000
1!
0"
0#
0)
0%
1$
1:
05
0C
0=
09
18
0-
0B
0A
0<
0D
04
0,
#421000
0$
08
1-
#424000
1%
1$
19
18
0-
1;
1<
1D
14
1,
#425000
0$
08
1-
#427000
1$
18
0-
#428000
0%
0$
09
08
1-
0;
0<
0D
04
0,
#429000
0&
07
0-
#431000
1$
18
1-
#432000
0'
06
0-
#435000
1&
0$
17
08
1-
#438000
1%
0&
19
07
0-
1;
1<
1D
14
1,
#439000
1$
18
1-
#440000
0%
0$
09
08
0-
0;
0<
0D
04
0,
#441000
1&
17
1-
#444000
1%
19
0-
1;
1<
1D
14
1,
#446000
1$
0%
18
09
1-
0;
0<
0D
04
0,
#447000
0&
0$
07
08
0-
#449000
1$
18
1-
#450000
1%
19
0-
1;
1<
1D
14
1,
#451000
0$
08
1-
#453000
1&
1$
17
18
0-
#454000
0%
09
1-
0;
0<
0D
04
0,
#455000
1)
0$
1=
08
0-
1B
#456000
1'
1%
1$
16
19
18
1-
1;
1<
1D
14
1,
#457000
0$
08
0-
#460000
0(
0@
1-
#461000
1$
18
0-
#463000
0$
08
1-
#464000
0%
09
0-
0;
0<
0D
04
0,
#465000
0&
1$
07
18
1-
#467000
0$
08
0-
#468000
1%
1&
1$
19
17
18
1-
1;
1<
1D
14
1,
#471000
0&
07
0-
#472000
0$
08
1-
#474000
1$
18
0-
#476000
0%
0$
09
08
1-
0;
0<
0D
04
0,
#477000
1&
17
0-
#478000
1$
18
1-
#479000
0$
08
0-
#480000
0'
1%
06
19
1-
1;
1<
1D
14
1,
#481000
1$
18
0-
#482000
0$
08
1-
#483000
1$
18
0-
#486000
0&
0$
07
08
1-
#487000
1$
18
0-
#488000
1'
0$
16
08
1-
#489000
1&
1$
17
18
0-
#491000
0$
08
1-
#494000
0%
1$
09
18
0-
0;
0<
0D
04
0,
#495000
0$
08
1-
#496000
0'
1%
1$
06
19
18
0-
1;
1<
1D
14
1,
#500000
1(
0$
1@
08
1-
#501000
0&
1$
07
18
0-
#503000
0$
08
1-
#504000
0%
1&
1$
09
17
18
0-
0;
0<
0D
04
0,
#506000
0$
08
1-
#507000
0&
1$
07
18
0-
#512000
1'
1%
16
19
1-
1;
1<
1D
14
1,
#513000
1&
0$
17
08
0-
#515000
1$
18
1-
#516000
0&
0$
07
08
0-
#517000
1$
18
1-
#518000
0%
0$
09
08
0-
0;
0<
0D
04
0,
#519000
1&
17
1-
#520000
0(
1$
0@
18
0-
#522000
1%
0&
0$
19
07
08
1-
1;
1<
1D
14
1,
#524000
0%
1$
09
18
0-
0;
0<
0D
04
0,
#525000
1&
0$
17
08
1-
#526000
1%
1$
19
18
0-
1;
1<
1D
14
1,
#527000
0$
08
1-
#528000
0'
0%
06
09
0-
0;
0<
0D
04
0,
#530000
1$
1%
18
19
1-
1;
1<
1D
14
1,
#533000
0$
08
0-
#534000
0&
07
1-
#535000
1$
18
0-
#536000
0%
09
1-
0;
0<
0D
04
0,
#538000
1%
19
0-
1;
1<
1D
14
1,
#539000
0$
08
1-
#540000
1(
1$
1@
18
0-
#541000
0$
08
1-
#542000
0%
1$
09
18
0-
0;
0<
0D
04
0,
#543000
1&
17
1-
#544000
1'
16
0-
#546000
1%
0$
0&
19
08
07
1-
1;
1<
1D
14
1,
#549000
1&
17
0-
#551000
1$
18
1-
#552000
0&
0$
07
08
0-
#554000
0%
09
1-
0;
0<
0D
04
0,
#555000
1&
1$
17
18
0-
#556000
1%
0$
19
08
1-
1;
1<
1D
14
1,
#557000
1$
18
0-
#558000
0%
09
1-
0;
0<
0D
04
0,
#559000
0$
08
0-
#560000
1#
0)
1$
1C
0=
18
1-
0B
1D
14
1,
0D
04
0,
#561000
0&
0$
07
08
0-
#562000
1$
18
1-
#563000
0$
08
0-
#564000
1&
1$
17
18
1-
#566000
1%
19
0-
1;
1<
#567000
0$
08
1-
#568000
0%
09
0-
0;
0<
#570000
0&
1%
07
19
1-
1;
1<
#571000
1$
18
0-
#573000
1&
0$
17
08
1-
#574000
0%
1$
09
18
0-
0;
0<
#575000
0$
08
1-
#576000
1%
19
0-
1;
1<
#577000
1$
18
1-
#578000
0%
0$
09
08
0-
0;
0<
#579000
0&
1$
07
18
1-
#580000
1%
0$
19
08
0-
1;
1<
#581000
1$
18
1-
#582000
1&
0%
0$
17
09
08
0-
0;
0<
#583000
1$
18
1-
#584000
0'
06
0-
#585000
0&
07
1-
#586000
1%
19
0-
1;
1<
#588000
0%
09
1-
0;
0<
#589000
0$
08
0-
#590000
1%
19
1-
1;
1<
#591000
1$
18
0-
#592000
1'
16
1-
#593000
0$
08
0-
#594000
1$
18
1-
#598000
0$
08
0-
#600000
0(
1&
0%
0@
17
09
1-
0;
0<
#602000
1$
18
0-
#604000
1%
19
1-
1;
1<
#606000
0$
08
0-
#607000
1$
18
1-
#608000
0%
09
0-
0;
0<
#609000
0&
07
1-
#610000
0$
1%
08
19
0-
1;
1<
#611000
1$
18
1-
#612000
1&
0%
17
09
0-
0;
0<
#615000
0$
08
1-
#616000
1$
18
0-
#617000
0$
08
1-
#618000
0&
07
0-
#620000
1(
1%
1@
19
1-
1;
1<
#622000
1$
18
0-
#624000
0'
1&
0%
0$
06
17
09
08
1-
0;
0<
#626000
1%
19
0-
1;
1<
#628000
1$
18
1-
#630000
1)
0&
0%
0$
1=
07
09
08
0-
1B
0;
0<
1D
14
1,
#633000
1&
1$
17
18
1-
#634000
1%
0$
19
08
0-
1;
1<
#636000
1$
18
1-
#637000
0$
08
0-
#638000
1$
18
1-
#639000
0&
0$
07
08
0-
#640000
0(
1'
0%
1$
0@
16
09
18
1-
0;
0<
#642000
1&
0$
17
08
0-
#644000
1$
18
1-
#645000
0$
08
0-
#646000
1$
18
1-
#648000
0'
1%
0$
06
19
08
0-
1;
1<
#650000
0%
09
1-
0;
0<
#651000
0&
07
0-
#652000
1$
18
1-
#654000
1%
0$
19
08
0-
1;
1<
#656000
1'
16
1-
#658000
1$
18
0-
#659000
0$
08
1-
#660000
1&
1$
17
18
0-
#661000
0$
08
1-
#664000
1$
18
0-
#665000
0$
08
1-
#666000
0&
1$
07
18
0-
#667000
0$
08
1-
#668000
0%
1$
09
18
0-
0;
0<
#669000
0$
08
1-
#672000
1&
1%
1$
17
19
18
0-
1;
1<
#673000
0$
08
1-
#674000
1$
18
0-
#675000
0&
07
1-
#676000
0$
08
0-
#677000
1$
18
1-
#678000
1&
17
0-
#679000
0$
08
1-
#680000
1"
0#
0%
1$
15
0C
09
18
0-
1A
0B
#681000
0$
08
1-
#682000
1$
18
0-
#684000
0&
1%
07
19
1-
#685000
0$
08
0-
#686000
1$
18
1-
#687000
0$
08
0-
#688000
0'
06
1-
0<
0D
04
0,
#690000
1$
18
0-
#694000
0%
0$
09
08
1-
#696000
1'
1%
1$
16
19
18
0-
1<
1D
14
1,
#697000
0$
08
1-
#699000
1&
17
0-
#700000
0)
0=
1-
#702000
0&
07
0-
#704000
0'
1$
06
18
1-
0<
0D
04
0,
#705000
0$
08
0-
#708000
0%
09
1-
#712000
1'
1%
16
19
0-
1<
1D
14
1,
#713000
1$
18
1-
#714000
1&
0$
17
08
0-
#717000
0&
1$
07
18
1-
#718000
0%
09
0-
#720000
0$
1%
08
19
1-
#721000
1$
18
0-
#722000
0%
0$
09
08
1-
#723000
1&
17
0-
#724000
1$
18
1-
#726000
0&
07
0-
#727000
0$
08
1-
#728000
0'
1%
06
19
0-
0<
0D
04
0,
#729000
1$
18
1-
#730000
0$
08
0-
#732000
1&
1$
17
18
1-
#734000
0$
08
0-
#735000
1)
1$
1=
18
1-
#738000
0$
08
0-
#739000
1$
18
1-
#740000
0%
09
0-
#742000
0$
1%
08
19
1-
#744000
1$
18
0-
#745000
0$
08
1-
#746000
0%
09
0-
#747000
0&
07
1-
#749000
1$
18
0-
#750000
1%
19
1-
#752000
0$
08
0-
#753000
1$
18
1-
#754000
0%
0$
09
08
0-
#755000
1$
18
1-
#756000
0$
08
0-
#759000
1&
17
1-
#760000
1%
19
0-
#763000
1$
18
1-
#764000
0%
0$
09
08
0-
#766000
1%
19
1-
#768000
1'
0&
1$
0%
16
07
18
09
0-
1<
1D
14
1,
#769000
0$
08
1-
#770000
0)
1$
0=
18
0-
#771000
1&
0$
17
08
1-
#772000
1%
1$
19
18
0-
#774000
0&
0%
0$
07
09
08
1-
#776000
0'
1$
06
18
0-
0<
0D
04
0,
#777000
0$
08
1-
#778000
1%
1$
19
18
0-
#780000
1(
0$
1@
08
1-
#783000
1&
17
0-
#784000
1'
0%
1$
16
09
18
1-
1<
1D
14
1,
#785000
0$
08
0-
#786000
1%
19
1-
#788000
1$
0%
18
09
0-
#791000
0$
08
1-
#793000
1$
18
0-
#794000
1%
19
1-
#795000
0&
07
0-
#797000
0$
08
1-
#798000
1&
1$
17
18
0-
#800000
0(
0%
0@
09
1-
#801000
0&
0$
07
08
0-
#802000
1$
18
1-
#804000
1%
1&
0$
19
17
08
0-
#805000
1)
1$
1=
18
1-
#806000
0%
0$
09
08
0-
#807000
1$
18
1-
#808000
0$
08
0-
#810000
0&
1$
07
18
1-
#811000
0$
08
0-
#812000
1%
19
1-
#813000
1$
18
0-
#814000
0$
08
1-
#816000
1&
0%
1$
17
09
18
0-
#817000
0$
08
1-
#818000
1%
1$
19
18
0-
#819000
0&
0$
07
08
1-
#822000
1&
1$
17
18
0-
#823000
0$
08
1-
#824000
0%
1$
09
18
0-
#825000
0&
0$
07
08
1-
#826000
1$
18
0-
#828000
1&
0$
17
08
1-
#829000
1$
18
0-
#830000
1%
0$
19
08
1-
#831000
0&
1$
07
18
0-
#832000
0'
0$
06
08
1-
0<
0D
04
0,
#833000
1$
18
0-
#834000
1&
17
1-
#836000
0%
09
0-
#837000
0&
07
1-
#840000
1(
0)
1'
1@
0=
16
0-
1<
1D
14
1,
#841000
0$
08
1-
#842000
1%
1$
19
18
0-
#843000
1&
17
1-
#844000
0%
09
0-
#849000
0$
0&
08
07
1-
#850000
1%
19
0-
#851000
1$
18
1-
#854000
0%
09
0-
#855000
1&
17
1-
#856000
0'
06
0-
0<
0D
04
0,
#857000
0$
08
1-
#858000
1$
18
0-
#860000
1#
0(
1%
0$
1C
0@
19
08
1-
#861000
0&
07
0-
#862000
0%
1$
09
18
1-
#864000
1&
1%
0$
17
19
08
0-
#865000
1$
18
1-
#866000
0%
0$
09
08
0-
#867000
0&
07
1-
#868000
1$
18
0-
#870000
1%
0$
19
08
1-
#871000
1$
18
0-
#872000
0$
08
1-
#873000
1&
1$
17
18
0-
#874000
0$
08
1-
#875000
1)
1=
0-
#876000
0%
0&
1$
09
07
18
1-
#877000
0$
08
0-
#878000
1$
18
1-
#879000
0$
08
0-
#880000
1'
1(
1%
1$
16
1@
19
18
1-
1<
#882000
1&
17
0-
#883000
0$
08
1-
#884000
1$
18
0-
#885000
0&
07
1-
#888000
0'
0$
1&
06
08
17
0-
0<
#890000
1$
18
1-
#894000
0&
0$
07
08
0-
#895000
1$
18
1-
#897000
1&
17
0-
#898000
0%
09
1-
#900000
0$
08
0-
#903000
0&
1$
07
18
1-
#904000
1'
1%
16
19
0-
1<
#905000
0$
08
1-
#906000
1&
0%
1$
17
09
18
0-
#908000
0$
08
1-
#909000
0&
1$
07
18
0-
#910000
0)
1%
0=
19
1-
#912000
1&
17
0-
#913000
0$
08
1-
#915000
0&
07
0-
#916000
0%
09
1-
#917000
1$
18
0-
#918000
1%
19
1-
#919000
0$
08
0-
#920000
0(
0@
1-
#921000
1&
17
0-
#923000
1$
18
1-
#925000
0$
08
0-
#926000
0%
09
1-
#927000
0&
07
0-
#928000
0'
1$
06
18
1-
0<
#930000
1%
0$
19
08
0-
#931000
1$
18
1-
#932000
0%
0$
09
08
0-
#934000
1$
18
1-
#935000
0$
08
0-
#936000
1&
1$
17
18
1-
#937000
0$
08
0-
#938000
1$
18
1-
#939000
0&
07
0-
#940000
1%
19
1-
#941000
0$
08
0-
#942000
1$
18
1-
#943000
0$
08
0-
#946000
0%
1$
09
18
1-
#948000
0$
08
0-
#949000
1$
18
1-
#950000
0$
08
0-
#952000
1'
16
1-
1<
#953000
1$
18
0-
#955000
0$
08
1-
#956000
1%
1$
19
18
0-
#957000
0$
08
1-
#960000
1$
18
0-
#961000
0$
08
1-
#962000
1$
18
0-
#963000
0$
08
1-
#964000
0%
09
0-
#966000
1$
1%
18
19
1-
#968000
0'
0$
06
08
0-
0<
#969000
1&
17
1-
#970000
0%
09
0-
#972000
0&
1%
07
19
1-
#974000
1$
0%
18
09
0-
#975000
1&
17
1-
#976000
0$
1%
08
19
0-
#977000
1$
18
1-
#978000
0&
0%
0$
07
09
08
0-
#979000
1$
18
1-
#980000
0!
0"
0#
0$
0:
05
0C
08
0-
1B
0A
0;
1<
0B
0<
1D
14
1,
0D
04
0,
#981000
1$
18
1-
1;
1<
1D
14
1,
#984000
1'
1%
0$
16
19
08
0-
0;
0<
0D
04
0,
#985000
1$
18
1-
1;
1<
1D
14
1,
#986000
0$
08
0-
0;
0<
0D
04
0,
#987000
1&
17
1-
#990000
1$
0&
18
07
0-
1;
1<
1D
14
1,
#992000
0'
06
1-
#993000
1&
17
0-
#994000
0$
08
1-
0;
0<
0D
04
0,
#996000
0&
07
0-
#997000
1$
18
1-
1;
1<
1D
14
1,
#998000
0$
08
0-
0;
0<
0D
04
0,
#999000
1$
18
1-
1;
1<
1D
14
1,
