simulation/qsim/MUXMAN.msim.vcd
$comment
	File created using the following command:
		vcd file MUXMAN.msim.vcd -direction
$end
$date
	Tue Feb 07 15:06:09 2017
$end
$version
	ModelSim Version 10.1d
$end
$timescale
	1ps
$end
$scope module Block1_vlg_vec_tst $end
$var reg 1 ! IN1 $end
$var reg 1 " IN2 $end
$var reg 1 # SEL $end
$var wire 1 $ pin_name4 $end
$var wire 1 % sampler $end
$scope module i1 $end
$var wire 1 & gnd $end
$var wire 1 ' vcc $end
$var wire 1 ( unknown $end
$var tri1 1 ) devclrn $end
$var tri1 1 * devpor $end
$var tri1 1 + devoe $end
$var wire 1 , pin_name4~output_o $end
$var wire 1 - IN2~input_o $end
$var wire 1 . SEL~input_o $end
$var wire 1 / IN1~input_o $end
$var wire 1 0 inst2~0_combout $end
$upscope $end
$upscope $end
$enddefinitions $end
#0
$dumpvars
0!
0"
0#
0$
x%
0&
1'
x(
1)
1*
1+
0,
0-
0.
0/
00
$end
#140000
1"
1-
0%
#240000
1!
0"
1/
0-
1%
10
1,
1$
#380000
1"
1-
0%
#480000
1#
0!
0"
1.
0/
0-
1%
00
0,
0$
#640000
1"
1-
0%
10
1,
1$
#740000
1!
0"
1/
0-
1%
00
0,
0$
#860000
1"
1-
0%
10
1,
1$
#940000
0"
0-
1%
00
0,
0$
#960000
0#
0!
0.
0/
0%
